<?xml version="1.0" encoding="UTF-8"?>
<svg enable-background="new 0 0 194.835 177.716" viewBox="0 0 194.835 177.716" xmlns="http://www.w3.org/2000/svg">
 <path d="m117.391,15.897c.725.298.059.74 0,1.222-.726-.298-.059-.741 0-1.222z" fill-rule="evenodd"/>
 <path d="m114.945,19.158v.815c-1.987.408-.751-2.169 0-.815z" fill-rule="evenodd"/>
 <path d="m108.02 40.354c-1.395 1.729-3.632 2.618-5.707 3.668 1.127-2 3.394-2.857 5.707-3.668z" fill-rule="evenodd"/>
 <path d="m97.826,46.06c-.372.715-.758,1.417-2.039,1.223 .373-.715.758-1.417 2.039-1.223z" fill-rule="evenodd"/>
 <path d="m119.02 46.468c-2.151 1.246-4.092 2.703-7.338 2.853 2.054-1.344 4.593-2.201 7.338-2.853z" fill-rule="evenodd"/>
 <path d="m141.439,54.211c.575,1.302-2.438,1.03-2.445.408-.576-1.301 2.438-1.03 2.445-.408z" fill-rule="evenodd"/>
 <path d="m108.423,59.51c.945-.13 1.564.066 2.038.408 .072.665-2.667.823-2.038-.408z" fill-rule="evenodd"/>
 <path d="m105.571,59.918h1.63c.41,1.226-.908.722-1.63.815v-.815z" fill-rule="evenodd"/>
 <path d="m125.951,66.848c1.533,6.832 1.182,13.977.814,21.195-.76-.269-1.096-2.343-1.222-3.668-.315-3.285-.672-11.685-.408-15.896 .04-.643.547-1.174.816-1.631z" fill-rule="evenodd"/>
 <path d="m139.402,73.776c-.131-.719 2.282-.727 1.631.408-.853.173-1.08-.279-1.631-.408z" fill-rule="evenodd"/>
 <path d="m109.646,111.686c.501.176.838.521.815,1.221-.502-.177-.836-.522-.815-1.221z" fill-rule="evenodd"/>
 <path d="m108.015,115.76c.501.178.838.522.816,1.223-.502-.178-.837-.521-.816-1.223z" fill-rule="evenodd"/>
 <path d="m56.25,129.211c-.129-.72 2.284-.728 1.63.408-.852.173-1.079-.28-1.63-.408z" fill-rule="evenodd"/>
 <path d="m54.212,136.549c1.035-.181 1.622,2.129.815,2.444-1.473.387-.569-1.603-.815-2.444z" fill-rule="evenodd"/>
 <path d="m80.298,137.363c.266-1.149.473.938.407,1.224-.187.817-.765.328-.407-1.224z" fill-rule="evenodd"/>
 <path d="m131.249,41.168h5.707c.005,1.083-.154,2.328.408,2.853 1.438.654 3.015-.34 5.299,0 .819,2.911.327,7.2.814,9.375 5.291.983 11.378.009 15.081,0 .69-.806.446-2.543.816-3.668 2.964.247 5.121-.313 7.743-.408 .715.916.196,3.066.816,4.076 6.455.032 14.197-1.182 22.011-.815 1.354.064 4.272-.831 4.482,1.223-7.876.2-13.346.989-22.824.815 1.202,1.204 3.942.778 6.521.815s5.531.119 8.151,0c3.171-.145 7.102-1.708 8.56.815-4.229.935-9.485.841-14.673.815 2.883,1.825 10.016-.611 14.673.815-.882,2.175-4.168,1.203-6.113,1.224-6.242.065-14.285-.049-20.788,0 .076,3.047-.266,6.514.408,8.967 7.803-1.063 18.42-1.153 25.271-.815 .06,1.432-1.783,1.501-2.446,1.63-7.568,1.475-14.588-.823-22.419.408-1.266.765.404,3.252-.406,3.668h-7.746c-1.282-1.125.007-2.395-.814-3.668-6.318-.114-9.688.3-15.489.407v8.968c-1.998.094-3.086-.719-5.299-.408-1.988,1.341.802,3.107-.815,4.076-1.735-.03-2.85-.682-4.892-.407-1.667,15.18-3.607,30.087-8.151,42.391-12.305,5.821-26.801,8.914-41.983,10.189 .243,1.959.409,3.87.407,6.93-5.164-.271-9.404.378-14.266.408-.94,1.232-.144,4.203-.408,6.113-.365,1.317 1.329.574 1.63,1.223 .253,5.102.426,8.188.408,14.673-.634,1.45 1.384.247 1.222,1.225-1.842,2.504.037,8.73-1.222,11.82-1.58-.56-.715-2.809-.815-4.075-.509-6.409-.564-16.164-.815-22.421-2.402-1.031-6.034.104-7.745,0 .4,1.639.499,3.578.407,5.708-1.746-.019-1.086-2.447-1.222-4.075-.944,1.771-.141,5.294-.408,7.743 .354,1.204.61-.945 1.63-.408-.273,5.982 1.234,12.352 0,17.937-1.799.058.039-.999-.407-2.039-1.215.009-.522,1.923-1.223,2.445-1.329-.301-1.226-2.034-1.63-3.261-1.539.169.449,2.618-1.63,2.854-.91-8.677-.063-19.125-.815-26.904-.285-1.507 1.429-1.015 2.039-1.628-.475-3.251-.004-3.201-.408-6.521-3.773-.021-10.959.54-14.266.814-.713-1.733-.303-4.588-.407-6.93-13.708-1.836-30.864-3.237-43.207-7.744 4.425-7.614 11.717-13.519 17.935-19.974 4.653-4.83 9.225-9.482 13.451-14.673 3.455-.332 6.564-1.646 9.375,0 2.761-1.724 8.567-.401 12.637-.816 1.155-1.888-.088-4.395-.408-6.113 4.486-.261 8.408-.377 13.859-.408 1.01,1.551 2.091,3.396 1.222,5.707 7.614.287 12.049-.784 20.38-.408 1.083-7.9-.021-11.158 0-19.972-1.773-.537-3.069.008-4.891.407-1.325-5.289-.819-12.376-.407-17.527 1.348-.967 3.114.337 4.076-.408 1.271-6.076.024-13.649-.408-20.38 11.38-10.764 21.967-22.325 32.606-33.831h1.224c2.009,3.537 3.506,8.528 4.892,13.859 .286,1.105.117,2.287.407,3.261 .346,1.163 1.324,2.017 1.631,3.261 .484,1.974.312,4.342.814,6.521 .917,3.977 2.387,8.957 2.853,14.266zm-17.527-22.418c-6.025,3.078-9.386,8.822-15.489,11.82 5.167-5.295 11.294-9.63 16.304-15.081 1.413-.554 2.154-1.78 3.261-2.854 .659-.636 2.942-.785 2.039-2.853-2.075.936-3.336,2.613-4.892,4.076-5.268,4.954-11.06,8.758-15.489,14.266-1.812.67-2.589,2.203-3.668,3.261-1.951,1.914-4.97,3.404-4.891,5.706 1.974-1.831 3.668-3.94 6.115-5.298-1.724,2.354-4.277,3.876-6.115,6.114-.551-.128-.778-.581-1.63-.408-.751,1.508-.519,1.467-.407,3.668 1.904.138 2.403-1.129 3.261-2.038 8.086-5.907 16.544-11.444 23.234-18.75 2.383-.333 3.113-2.32 4.891-3.261v-4.076c-3.112.967-4.838,3.318-6.524,5.708zm-11.006,1.63c0,0 1.002.529.816.815-.352.542-1.681,1.259-2.446,2.039-1.137,1.155-2.044,2.827-3.261,3.261-.37.112-1.369,1.518-.408,1.63 2.39-2.506 5.693-5.209 7.745-7.745 2.924-3.612 8.739-5.292 8.966-9.375 3.101-.841 5.167-2.715 5.708-6.114-2.472,1.062-3.512,3.553-5.708,4.892-.642-.038-.318-1.04-1.222-.815-.808,2.106-4.694,5.276-4.483,5.706 1.796-.921 2.352-3.083 4.483-3.668-1.599,3.428-4.899,5.155-7.336,7.745-.439-1.042 1.755-1.426.406-2.039-.389,1.541-3.019,2.127-3.26,3.668zm19.973,40.353c.497,1.423 1.534.402 1.63,1.631-.124.701-1.415-.53-1.222,1.222 .488,18.765.604,39.982 2.038,55.842 3.394-8.569.383-17.124 1.222-28.124 1.521.432.646-1.529 2.039-1.224 1.029,1.712-.152,2.551-.814,3.669 2.252-1.572.444,2.259 1.63,2.853 .813-3.155-.235-7.834 0-10.598 2.973.184.477-2.568 2.037-3.668-.081-1.548-1.714-1.547-1.631-3.261-.343-2.375 1.155-1.694.408-3.668-2.888,1.186.408,6.571-2.038,8.559-.426-5.721.149-11.073 0-16.305-.04-1.436-1.494-3.483.408-4.483 1.57,2.932-1.441,7.945 1.63,9.375-1.035-6.806.541-13.275 0-19.158-1.715-.629-.064,2.109-1.222,2.038-.669-2.31.764-5.473-1.223-7.745 .046,4.123-.015,8.137-.816,11.414-1.171-4.24.154-10.936 0-15.897-.038-1.232-.116-3.181-1.222-3.668-.272,6.25.542,13.585-.408,19.157-1.185-9.434-.729-23.66-1.631-33.016-.739-7.692.841-16.186-2.446-19.972 .309,19.914 1.572,36.126 1.631,55.027zm-9.374-33.015c1.562-3.329 6.252-3.53 7.337-7.337-2.85.82-4.282,3.056-6.115,4.891-7.311,4.781-14.429,9.755-20.788,15.489 2.415-.987 5.021-3.941 6.93-4.076-2.61,1.926-5.092,3.86-7.744,5.706-1.693,1.18-4.898,2.065-3.668,4.892 10.497-6.352 20.454-13.242 31.386-19.157-.023-1.88.181-3.985-.408-5.299-3.722,2.529-6.928,5.573-11.006,7.745 .692-1.619 2.284-2.336 4.076-2.854zm-21.196,14.266c-1.066-.115-1.753.148-1.63,1.222 1.02.07 1.276-.626 1.63-1.222zm21.603-17.527c-.048-.418 1.759-.825.406-1.223 .22.587-1.586.994-.406,1.223zm12.635,4.891c.066-1.288.016-2.46-.813-2.854-.599.647-.841,3.237.813,2.854zm0,2.038c-.314.091-.803.011-.813.408 .71.031 1.267-.091 1.63-.408 .114-.929-.098-1.532-.816-1.63-.679.809.038.517-.001,1.63zm-6.521,0c-9.869,6.164-19.688,12.377-30.571,17.527-.118,1.354-.55,3.626.815,4.483 10.115-4.424 20.062-9.015 30.571-13.043 .188-1.987-.428-4.775.406-6.114-4.306.587-7.092,4.86-10.597,4.891 1.603-.992 3.282-2.471 5.3-3.669 1.843-1.095 5.052-1.55 4.891-3.668-.09-.317-.341-.474-.815-.407zm-31.386,4.484c1.358-.423 3.624-2.064 2.446-3.669-.525,1.512-2.563,1.513-2.446,3.669zm20.788.815c1.307-.474 3.891-1.799 3.261-2.854-.946,1.092-2.658,1.419-3.261,2.854zm17.119,1.63c-.257-1.373.526-3.786-.406-4.484-.305,1.03-1.096,4.13.406,4.484zm1.225-3.668h.814v-.816h-.814v.816zm-8.154,7.744c.701.022 1.045-.313 1.224-.815-.701-.022-1.045.314-1.224.815zm11.821,2.038c2.108-.554 3.515.595 4.077-1.63-1.654-.869-2.614.101-4.483-.408-.338,1.152.573,1.056.406,2.038zm-11.821.408c-2.896,1.889-6.042,2.007-9.374,2.853-7.021,1.783-13.513,6.02-20.789,7.337-.541,2.232.059,2.442.408,4.483 10.449-1.643 20.595-3.589 31.385-4.891 .232-2.721.567-8.588-.814-11.005-.098.581-.672.688-.816,1.223zm17.936.814v2.039c1.881-.149 2.345-.501 4.075,0v-2.039c-1.743-.514-2.016.031-4.075,0zm-6.522.817c-.092.771.459.899.406,1.63 .886-.23 3.339-.974 4.077,0 .091.77-.46.899-.408,1.63-1.128.366-3.826-.838-3.669.815-.36,2.127 4.03-.497 3.669,1.63-.974,1.55-4.016-1.217-3.669,1.223 .007,1.701 2.952-.782 3.261,1.223-.646,1.331-3.236-.833-2.853.815 .074,9.247.386,16.202.815,25.271 1.384-.11 3.304.316 4.075-.407 .131-12.156-.585-25.968-.814-34.239-1.752.871-3.553-.347-4.89.409zm-1.224,4.483c.647-.609.301-1.667-.406-2.038 .222.592-.478,2.107.406,2.038zm7.338-.408c1.781,1.023 2.871.409 5.299.407 .092-.771-.459-.899-.408-1.63-1.327.712-4.328-.251-4.891,1.223zm24.863,21.196c1.862-.041 4.135.33 4.893-.815-.176-5.874.043-13.307-.815-19.565h-4.892c.462,6.954.444,10.796.814,20.38zm-24.455-19.158c.826,7.986.026,17.504.814,24.457 1.504.29 2.61.214 4.076-.408 1.021-7.56-.117-16.444-.408-24.049h-4.482zm14.264,2.446c-2.986.083-6.838-.821-8.151,1.223 3.161.523 8.794-.123 12.637-.408 1.37-.101 3.46,1.368 3.668-.814-1.925-.759-5.282-.081-8.154-.001zm16.306.408c1.232-.127 3.169.453 3.261-.815-1.387-.029-2.845-.127-3.261.815zm-83.559,1.223h.815v-.816h-.815v.816zm84.782.814c-.521-.021-.564-.522-1.223-.407-.634,1.003 1.385,1.198 1.223.407zm10.189-.407c-3.561.381-4.763.049-8.56,0 .972,1.412 7.947,1.22 8.56,0zm-69.292.815c-1.374-1.238-1.236,1.507 0,0zm.815,1.63c.779-.171 1.754-.147 1.63-1.222-4.068.596-6.782.464-9.374,2.853-4.168,1.26-10.937.233-13.859,1.63-.294,1.246.417,1.486.408,2.447 10.352-.28 18.742,1.811 30.163,2.444 .739.349 1.124,1.05 2.038,1.223-.197-3.742-.609-7.272-.408-11.413h-1.223c-.809,2.728-6.489,2.746-9.375,2.038zm39.538-1.222c-1.652-.682-5.802-.751-6.93.407 4.432.589 10.732-.381 16.305,0-1.307-2.507-6.577-.274-9.375-.407zm-65.218,11.413c2.005-2.128 3.335-9.668-.407-10.597-.506,3.472-.875,8.086.407,10.597zm58.696-9.783c.243,3-.062,5.207.407,8.56 5.303-.268 10.979-.164 15.896-.816-.113-3.527-.072-5-.814-8.152-5.509-.337-11.194.835-15.489.408zm-35.053,8.561c1.947,1.132.986-1.338 0,0zm-2.039.814c-1.317-1.313-6.517-1.148-6.115-.815 2.599.996 5.755,1.076 8.968,1.63 1.577.272 4.312-.37 4.891,1.63-5.389-.316-9.678-1.735-14.673-2.445v-1.223c-3.886-.054-6.822-1.059-10.19-1.63-.666.659.364,1.705 0,3.261 10.005,4.534 21.668,7.409 32.201,11.413v-8.152c-.516-.979-3.215.226-3.669-.815 .307-1.323 3.983.724 3.669-1.222-.143-1.489-2.631-.631-3.669-1.223-1.701.202-.476,3.328-2.853,2.854-1.138-1.131.753-1.315.814-2.446-3.617-.901-5.293-1.169-9.374-.817zm-16.712,6.929c10.803,5.229 21.499,10.567 32.202,15.897 .036-4.063-.342-4.867 0-8.152-2.85.268-3.474-1.69-6.521-1.223-7.279-4.813-17.951-6.235-25.272-11.005h-.815c-.201,1.83.205,3.054.406,4.483zm1.223,2.854h1.223c.053-.731-.405-.954-1.223-.815v.815zm-.815,4.075c1.65-.551 3.683,1.059 4.484,1.63 5.515,3.94 11.641,8.693 17.934,11.006 2.836,2.327 6.28,4.045 9.782,5.707-.698-3.306 1.224-7.112-1.631-8.562-.312.916 1.883,1.301.408,2.038-1.952-.356-3.156-1.461-4.891-2.038 .074,1.562-.334.149-1.223.408-8.027-4.745-16.09-9.455-24.864-13.451-.09.765-1.051,2.704.001,3.262zm8.152-.815c-.634-.093-1.902-1.567-2.446-.407 1.042-.315 1.874,1.595 2.446.407zm12.635,7.745c-2.013-2.878-5.85-3.933-8.968-5.707 2.271,2.623 6.023,3.761 8.968,5.707zm-19.157,1.63c.878-.841.177-1.544-1.223-1.222 .575,2.945 3.881,4.494 6.521,6.521 2.67,2.048 5.627,4.257 7.745,6.521-.68.81.037.518 0,1.631 3.408,2.026 6.15,4.717 8.966,7.338 2.845,2.645 5.31,5.983 8.969,7.743 1.003-1.401-.496-3.118 0-5.297-1.755-.962-2.265-3.172-5.3-2.854-2.534-3.153-10.398-8.723-14.673-11.82-1.698-1.231-7.328-5.169-4.483-4.892-2.789-1.347-3.914-1.99-6.522-3.669zm-2.038-6.521c-.318,1.813.543,2.446.408,4.076 5.217,1.169 6.874,5.897 11.413,7.745-.323,1.409.453,1.721.814,2.444 1.152.338 1.057-.574 2.038-.406 3.996,3.748 9.642,5.847 13.043,10.19 2.277-.589 3.155,2.134 5.3,2.853v-6.521c-3.646-1.063-6.741-3.864-9.375-5.299-.535-.292-.696-.893-1.224-1.223-6.543-4.122-13.96-7.602-17.934-12.637 2.649,1.156 4.504,3.105 6.929,4.484-2.914-3.505-6.668-4.777-11.412-5.706zm14.266,14.265c-.021.703.313,1.045.815,1.224 .022-.701-.313-1.045-.815-1.224zm-44.837-8.15c2.592.746 8.105-.292 7.337-3.669-3.4.269-7.877-.54-10.598.407 1.499.573.942,2.592 3.261,3.262zm44.837.814c-.483-.119-1.539-1.642-2.039-.408 .483.12 1.541,1.643 2.039.408zm-6.114,30.57c-7.372-8.931-12.919-19.688-19.564-29.348h-5.299c1.59,3.268 3.847,6.275 5.706,9.374 2.823,4.703 5.152,9.85 8.153,13.858-.733,2.773 2.583,3.208 1.63,4.894-.958-.13-.242-1.935-1.63-1.633-1.234.484 2.004,2.009.407,2.854-1.276-.217-1.469-1.521-1.63-2.854-4.967-8.481-9.171-17.729-13.859-26.493h-4.483c1.906,5.838 4.269,11.22 5.706,17.527 .48.063 1.157-.069 1.223.408 .417,1.891 1.863,2.756 1.63,5.297-.643-.036-.319-1.038-1.223-.814-.672,2.982 2.58,2.04 2.854,4.075-.417,1.622-.949,3.128-2.854,3.261-3.339-8.754-5.764-18.42-8.152-28.124-1.278.191-1.149-1.024-1.63-1.63-.96-.01-1.2.703-2.445.408-.737,9.85 2.851,18.881 3.261,28.939-1.694-.062-2.436.824-3.261,1.631 19.181-.354 42.203-.647 59.511-1.631 .433-1.521-1.529-.645-1.225-2.038-1.245-.295-1.197.703-2.444.408-2.299-3.001-5.845-4.754-7.745-8.153 2.507,1.979 5.833,5.307 8.153,6.114-5.431-5.575-10.867-11.144-17.12-15.896-.179,1.401.161,2.285.406,3.261 1.526.882 2.108.281 3.263,1.224-.005.537-.715.372-.816.814 3.067,3.435 6.62,6.452 9.782,9.784 .982,1.031 2.025,2.271 2.446,3.668-1.929-.109-2.295-1.781-3.668-2.446-1.004.482.834,1.539-.408,2.039-1.066-1.38-2.308-2.586-3.261-4.077 1.3.058 1.211,1.508 2.446,1.63-.377-2.608-2.092-3.066-3.669-4.482-3.159-2.838-8.598-9.399-11.006-11.007 .171.113-.199.853-.406.816-.859-.152-3.409-3.102-1.224-2.446-3.918-2.738-5.172-8.142-11.004-8.968-.159,2.111 2.444,3.035 3.667,4.484 1.68,1.99 2.871,4.074 4.484,5.706 2.958,2.995 6.386,6.226 8.56,9.376-.678.809.037.519 0,1.63 .317.091.805.01.814.408 1.073,1.058.322-.66 1.631-.408 .953,3.529 5.082,3.888 5.707,7.745-2.647-.071-2.301-3.136-5.299-2.854-3.904-5.883-9.381-10.906-13.451-15.896-2.95-3.616-5.204-8.114-9.375-10.19 1.618,4.558 4.688,8.141 7.337,11.822 2.944,4.09 6.9,8.745 8.559,13.451 1.005.353 1.768.948 1.63,2.444-1.177.194-1.5-2.531-2.444-1.223 .813.565 2.659,2.205 1.629,3.261zm-14.674-9.376c.94.826.437,3.097 2.446,2.854-.45-1.062-1.475-3.664-2.446-2.854zm-9.375,3.261c-.7-.026-.818-2.65-1.63-1.222 1.036-.31.684,2.785 1.63,1.222zm19.158-19.563c1.046-2.14-2.156-3.177-3.669-4.077 .564,2.02 2.512,2.653 3.669,4.077zm14.266-2.446c-.644-.471-2.218-2.093-2.854-1.224 1.024.092 2.246,2.067 2.854,1.224zm-50.135-.815c-.823,8.848-3.877,17.556-3.668,26.085-1.061.843-1.169,2.638-2.039,3.669-1.557.549-2.192.945-3.668,0 2.486-10.013 4.729-20.27 8.152-29.347-.676-.683-2.393-.325-3.668-.407-1.044,2.95-2.513,5.843-3.668,8.966-1.122,3.032-2.669,6.007-3.669,8.97-.879,2.604-1.341,5.541-1.63,8.149-1.342.561-1.647,2.158-2.038,3.669-.687.672-1.831.886-2.446,1.632 3.267.302 10.579-.155 15.489-.407 2.586-.133 7.888,1.28 6.521-2.447 .022.702-.313,1.045-.815,1.223-1.451-8.415 1.372-19.99.815-29.754-1.208-.559-1.775.237-3.668-.001zm-27.31,12.229h-1.223c-1.901,2.991-5.997,5.955-6.113,9.374 6.496-5.205 11.345-13.718 17.119-20.787-1.237-.454-3.096.259-5.298,0-5.753,6.203-11.16,12.753-16.305,19.564-.063-.481.07-1.157-.408-1.224-.114.613-1.752,1.718-.815,2.04 .061-1.016 1.38-.12 1.63,0 5.626-5.623 10.784-12.448 15.897-17.936 .842-.904 1.377-2.322 2.853-2.039-1.793,4.322-4.359,7.871-7.337,11.008zm-13.451,17.525c-.221-1.442 1.443-1.002 1.222-2.444-2.573.822-3.415,3.377-6.113,4.076 .609-4.149 5.509-6.171 5.706-9.376-1.035,1.548-2.612,2.552-3.668,4.075-.208-1.452 2.106-2.48 1.223-3.261-.781,1.667-3.254,1.639-3.261,4.077 .759.39 1.361-1.221 1.63,0-.776.854-3.024.237-2.446,2.444-1.91-1.532-3.288,4.153-5.298,1.225 1.195-.028 1.513-.933 2.038-1.631-3.012-.159-4.141,1.564-4.891,3.669 11.974-.002 22.633-.529 33.424-.816 3.833-11.382 9.606-20.828 14.266-31.385-3.447-1.1-3.627,4.367-5.299,2.445-1.236,2.161-2.615,4.178-3.668,6.521 1.416.171 1.416-3.172 2.446-2.037-.854,1.42-4.252,4.913-1.63,4.892-1.019,1.155-1.063,3.285-2.854,3.667-.495-2.322 2.057-4.248 1.63-6.114-2.017,3.419-4.551,6.319-6.114,10.19 .702.161 1.045-.604 1.223,0-.46,1.546-4.35,5.006-2.854,5.707 1.479-1.103 1.685-3.478 3.261-4.482-1.466,3.287-2.424,7.085-5.299,8.966 .136-1.494 1.616-1.646 1.223-3.669-2.945.377-3.044,5.569-6.114,4.485 4.325-10.672 12.063-20.59 18.343-30.571h-2.854c-5.41,8.313-12.191,15.254-17.527,23.642 2.316-1.085 3.657-5.305 5.298-5.707-1.31,3.173-4.271,4.695-4.891,8.56-2.562.299-2.929,4.942-5.706,3.669 1.014-2.116 3.571-4.847 3.261-6.93-2.09,1.85-3.373,4.507-5.707,6.113zm96.195-25.678c-.532-.321-2.158-1.596-2.445-.815 .687.165 1.83,1.92 2.445.815zm-16.712,1.223c-.579-.273-1.259-2.493-2.038-1.223 .852,0 1.532,2.22 2.038,1.223zm3.669,3.261c1.354.224-.261-2.769-1.631-2.446-.281,1.641 1.717,1.001 1.631,2.446zm22.825,1.629c-1.643-1.891-3.918-3.147-6.521-4.076 1.641,1.891 3.918,3.148 6.521,4.076zm-102.309,4.078c-1.022,1.109-3.062,1.778-2.445,3.261-.058-1.282 1.046-1.4 2.039-1.632 1.405-2.51 6.111-6.312 6.114-7.336-2.393,1.484-3.995,3.845-5.708,5.707zm25.272.406c-1.332,2.652 1.165,1.653 0,0zm46.059,2.446c1.382,3.669-.086-1.302 0,0zm-68.884,2.037c.058-.481.726-.923 0-1.221-.059.481-.727.922 0,1.221zm19.156,4.485c1.873-.312 2.337-4.171 2.039-5.299-.608,1.839-1.071,3.819-2.039,5.299zm9.783.408c1.096-.658 2.04-5.402.816-5.707-.137,2.038-1.004,3.345-.816,5.707zm71.331-4.893c-.521-.021-.564-.521-1.223-.406-.633,1.003 1.385,1.198 1.223.406zm-61.548,2.854c.518-.482.172-1.54-.408-2.038 .223.592-.476,2.106.408,2.038zm-42.799,4.075c1.303-.209 2.732-2.408 2.039-3.261-.568,1.201-1.991,1.543-2.039,3.261zm13.043,11.414c-.409-.001-.485.33-.815.408-.029,1.828 1.199-.561 2.039-.408 10.249.234 23.56-.49 31.793.408 1.757.534.505-1.94 2.038-1.632 5.164-.269 11.411.542 15.896-.406-2.814-.311-6.352.102-8.152-1.223 3.383-.098 4.455-.192 7.744,0 2.647-1.463 7.065-1.541 11.006-1.632 7.115-.162 15.121-1.057 21.603.408 1.629-1.496 4.757-1.493 6.113-3.261-41.657,1.128-79.004,2.465-116.981,3.669 1.297,1.323 3.706,2.266 5.706,2.444 2.662.242 6.305-.66 9.782-.814 3.22-.143 6.63.532 9.783.408 1.359-.055 2.648-.712 4.076-.816 3.732-.269 7.712,0 11.413,0 3.583,0 7.128-.527 10.19.408-5.434,1.718-17.016-.148-23.234,2.039zm71.332-2.853c.629-1.23-2.109-1.073-2.038-.408 .981-.167.885.743 2.038.408zm-13.044,1.629c.715-.371 2.034-.14 2.446-.814-.798-.048-2.407-.97-2.446.814zm11.005-.814c-.923-.366-1.792-.506-2.445,0 .282.32 2.275.907 2.445,0zm-17.527.814c1.833-.572 3.624,1.235 4.076-.406-1.357-.393-2.979-.745-4.076.406zm-10.597,1.632c8.464-.174-5.603-.739-6.522-.815 1.462,1.734 4.602,1.017 6.522.815zm8.559,0c.817.166 3.023,1.009 3.668,0-.767-1.117-2.662-.782-3.668,0zm-50.951-.408c-.844.242-2.678-.504-2.853.408 .845-.242 2.678.505 2.853-.408zm65.217,0c-4.679-.454-2.918,1.218 0,0zm-5.298.408c-1.106.252-3.235-.518-3.669.408 1.106-.253 3.235.518 3.669-.408zm-40.354,1.223c1.957-.157-.751,1.805 1.63,1.223 1.439-.12-1.438-1.104 0-1.223 1.282-.466.991.64 1.631.814 4.902-2.153 11.785.766 17.119-.814-7.313-.878-14.706-.815-20.38,0zm-9.782.406c.575-1.3-2.438-1.028-2.445-.406 .96-.009 1.199.701 2.445.406zm11.821,2.04c.173,2.531.44,2.729.408,5.705 3.67.27 8.42-.54 11.413.408-.045,1.042-1.365.81-2.445.816 .044,2.266-.324,4.942.815,6.113h4.891v-6.113c-1.504-.263-2.806,1.271-2.853-.816 2.108-1.969 8.259.108 11.005-1.224 1.034-.729-.406-3.938 1.222-4.075 .642,1.883-.852,3.365.815,4.075 1.191-.438-.375-3.636.815-4.075 .552,1.783.101,2.048.408,4.075 1.86-.206 2.31.71 3.667,0-.069-2.512.247-5.409-1.222-6.521-10.208,1.284-20.245.096-28.939,1.632zm-6.522,5.298c-.658-2.362 1.259-5.312-.408-6.114-1.127,1.451-1.146,5.633.408,6.114zm2.853-2.445c-.017-1.24-.237-2.684 1.223-2.446 .489,1.686-.282,4.629 1.223,5.299 1.219-1.801-.404-4.458.408-6.113h-4.076c.597.894-.049,3.036 1.222,3.26zm11.413,6.521c-.296-1.247.703-1.199.407-2.444-1.591-.449-1.633,2.428-.407,2.444zm-2.038,8.56c-.08.841-.014,4.679.408,2.446v-4.484c-.09-.318-.342-.475-.815-.408-.295,1.247.416,1.486.407,2.446zm.815,15.897c-.605-4.432 1.52-7.614-.815-10.19 .209,4.365-.316,7.026.815,10.19zm2.038-5.301c.1-1.363.877-2.567-.408-3.261-.177,1.445-.626,2.321.408,3.261zm.816,11.006c-1.164-2.672.515-8.362-1.223-9.374 .459,3.074-1.104,8.169 1.223,9.374zm-2.854-1.63c.555-.52.63-1.997-.407-2.038 .223.594-.477,2.107.407,2.038z" fill-rule="evenodd"/>
 <path d="m93.749,47.69c.763.921-1.983,1.803-3.26,2.039 .473-1.293 2.676-.857 3.26-2.039z" fill-rule="evenodd"/>
 <path d="m105.977,50.951c-3.147,1.506-7.535,3.832-10.597,4.077 .395-.931 3.118-2.099 4.075-2.446 2.077-.755 4.363-.995 6.522-1.631z" fill-rule="evenodd"/>
 <path d="m92.119,88.042c.658-1.273 1.291.837 2.038.816-.322.938-1.426-.701-2.038-.816z" fill-rule="evenodd"/>
 <path d="m94.973,90.081c2.138.447 5.395,3.297 7.335,5.299-2.622-1.589-4.959-3.465-7.335-5.299z" fill-rule="evenodd"/>
 <path d="m102.716,95.788c.783-.888 1.914,1.321 2.854,1.63-.783.888-1.915-1.323-2.854-1.63z" fill-rule="evenodd"/>
 <path d="m109.24 101.09c2.494 0.092 6.059 2.634 7.745 4.892-2.684-1.53-4.73-3.695-7.745-4.892z" fill-rule="evenodd"/>
 <path d="m105.977,104.756c.224-1.151 3.455,1.586 1.631,1.223-.113-.838-1.089-.815-1.631-1.223z" fill-rule="evenodd"/>
 <path d="m98.641,106.385c1.166-.607 2.74,1.867 3.261,3.261-1.357-.817-1.92-2.427-3.261-3.261z" fill-rule="evenodd"/>
 <path d="m109.238,107.2c1.957-.858 3.17,2.528 4.891,3.261-.329.753-3.337-2.554-4.891-3.261z" fill-rule="evenodd"/>
 <path d="m37.908,110.053c1.066-.742-.657,1.436-.815,2.039-.938-.322.7-1.425.815-2.039z" fill-rule="evenodd"/>
 <path d="m103.53 111.69c0.262-1.529 2.59 1.318 2.853 2.444-1.361-0.406-1.412-2.121-2.853-2.444z" fill-rule="evenodd"/>
 <path d="m117.39 112.91c1.073 1.645 3.804 1.632 4.483 3.668-1.862-0.853-3.781-1.651-4.483-3.668z" fill-rule="evenodd"/>
</svg>
